pl/sda/spring/ICustomer.class
pl/sda/spring/WebInitializer.class
pl/sda/spring/Customer.class
pl/sda/spring/AppJavaConfig.class
pl/sda/spring/FoodController.class
pl/sda/spring/OrderHistory.class
pl/sda/spring/Menu.class
